2024-06,Russia,Central & Eastern Europe & Central Asia,83852570.0,45784616.0,38067954.0,51.310896043955864,8.062185771950904,10.793205627452886,11.959269627814596
2024-06,Poland,Central & Eastern Europe & Central Asia,24901703.0,18960109.0,5941594.0,8.008534214089675,7.190511299080914,1.684588717240761,1.5591305839455
2024-06,Turkey,Central & Eastern Europe & Central Asia,27963686.0,22502663.0,5461023.0,7.360783914119787,13.400492647673095,1.548334963713827,1.2417402444009276
2024-06,Albania,Central & Eastern Europe & Central Asia,1215673.0,4715970.0,3500297.0,4.717967650427721,20.02593193640015,0.9924206926948701,1.5294284416517447
2024-06,Ukraine,Central & Eastern Europe & Central Asia,18551124.0,16259356.0,2291768.0,3.0890199563881118,14.403958325568315,0.6497728581477336,0.2807756795267499
2024-06,Romania,Central & Eastern Europe & Central Asia,8849847.0,6665599.0,2184248.0,2.9440962879754062,1.5605755332994438,0.6192882813022395,0.5975939113639112
2024-06,Czechia,Central & Eastern Europe & Central Asia,9278988.0,7301269.0,1977719.0,2.6657207270229537,3.2069745555625433,0.5607322064201425,0.4943673783681031
2024-06,Greece,Central & Eastern Europe & Central Asia,8456582.0,6811277.0,1645305.0,2.217667747933099,3.684122282213103,0.46648462338891056,0.38477228076140735
2024-06,Kazakhstan,Central & Eastern Europe & Central Asia,7132105.0,5533140.0,1598965.0,2.155207156468769,2.0160287411356466,0.453346088316178,0.41453277790872867
2024-06,Hungary,Central & Eastern Europe & Central Asia,7439365.0,5973944.0,1465421.0,1.9752063531344461,3.132165094774498,0.4154830644112798,0.34664755538926634
2024-06,Uzbekistan,Central & Eastern Europe & Central Asia,4173655.0,2920135.0,1253520.0,1.6895900002668793,0.5225449640508533,0.35540389478574924,0.3784184010485453
2024-06,Bulgaria,Central & Eastern Europe & Central Asia,4576320.0,3628294.0,948026.0,1.2778218533354144,1.6529681999022752,0.2687887969543004,0.2339306204943947
2024-06,Georgia,Central & Eastern Europe & Central Asia,2453518.0,1614837.0,838681.0,1.1304383105286129,0.8761987599677697,0.23778678751261006,0.26618971900341337
2024-06,Serbia,Central & Eastern Europe & Central Asia,6015028.0,5192885.0,822143.0,1.108147130950773,4.358492243053652,0.23309785585458567,0.12744307548701078
2024-06,Slovakia,Central & Eastern Europe & Central Asia,3982928.0,3162064.0,820864.0,1.1064231970603355,1.4536172599313348,0.23273522775018288,0.20198366619870767
2024-06,Azerbaijan,Central & Eastern Europe & Central Asia,3373386.0,2666618.0,706768.0,0.9526358935706027,1.1647879355181099,0.20038619241012062,0.1761217106276536
2024-06,Belarus,Central & Eastern Europe & Central Asia,3549795.0,2861512.0,688283.0,0.9277203986802672,1.5172738087409776,0.1951452381412501,0.16175967437685052
2024-06,Latvia,Central & Eastern Europe & Central Asia,1538998.0,1052964.0,486034.0,0.6551137486356121,0.3485724997993191,0.13780264901899997,0.1501274661498286
2024-06,Lithuania,Central & Eastern Europe & Central Asia,2186558.0,1720275.0,466283.0,0.6284918422477833,0.7037240750089091,0.13220275246695984,0.11783239748465416
2024-06,Armenia,Central & Eastern Europe & Central Asia,1697380.0,1314276.0,383104.0,0.516376832808605,0.4312364863833044,0.10861945059352837,0.10052236671999372
2024-06,Croatia,Central & Eastern Europe & Central Asia,4083833.0,3708589.0,375244.0,0.5057825244592388,3.9102060443196454,0.1063909463710062,0.00934711010795571
2024-06,Kyrgyzstan,Central & Eastern Europe & Central Asia,1416147.0,1068052.0,348095.0,0.4691890286097545,0.20656407700721113,0.09869353401257688,0.0960050999570284
2024-06,Slovenia,Central & Eastern Europe & Central Asia,1887699.0,1581112.0,306587.0,0.41324137581516196,1.1144617466010922,0.08692499033974607,0.06099024199196332
2024-06,Estonia,Central & Eastern Europe & Central Asia,1363919.0,1069820.0,294099.0,0.3964090955776446,0.41800424070999,0.08338433375821212,0.07496941020634794
2024-06,North Macedonia,Central & Eastern Europe & Central Asia,1113265.0,872003.0,241262.0,0.32519135127033305,0.3337722599451624,0.0684037386430208,0.061729487458855176
2024-06,Cyprus,Central & Eastern Europe & Central Asia,966624.0,755714.0,210910.0,0.284280607374663,0.28168593094233313,0.05979819663767819,0.054217079238024185
2024-06,Kosovo,Central & Eastern Europe & Central Asia,548094.0,340055.0,208039.0,0.2804108542867456,0.31609279636922055,0.05898419719456609,0.06840372359728196
2024-06,Moldova,Central & Eastern Europe & Central Asia,1077226.0,906386.0,170840.0,0.23027120081497995,0.6572464866833302,0.048437361498179045,0.03310407925462983
2024-06,Montenegro,Central & Eastern Europe & Central Asia,765302.0,603901.0,161401.0,0.2175485956610781,0.2523835640966905,0.04576117175818073,0.04056268953589208
2024-06,Tajikistan,Central & Eastern Europe & Central Asia,506551.0,348690.0,157861.0,0.21277711327472226,0.1074476499912998,0.044757494283915025,0.04857674226774418
2024-06,Turkmenistan,Central & Eastern Europe & Central Asia,428844.0,328802.0,100042.0,0.13484424884062413,0.08938648085169974,0.028364379062285342,0.026826703481819692
2024-06,Bosnia and Herzegovina,Central & Eastern Europe & Central Asia,2044642.0,1976242.0,68400.0,0.09219474441433288,2.60038630246721,0.019393090180727268,0.04596703717840409
2024-06,Japan,"East, Southeast Asia, & Pacific",98675522.0,76402236.0,22273286.0,33.437344613221825,36.37148432174411,6.315026959344008,5.032228510986816
2024-06,South Korea,"East, Southeast Asia, & Pacific",24031244.0,12654089.0,11377155.0,17.079736346627964,21.794218456972974,3.225704574782341,3.8622019261947624
2024-06,Indonesia,"East, Southeast Asia, & Pacific",34273820.0,25833974.0,8439846.0,12.670157388744604,2.0729399323689153,2.3929048916586306,2.2248490277466297
2024-06,Taiwan,"East, Southeast Asia, & Pacific",22481815.0,17781929.0,4699886.0,7.055613968448871,3.550549177578958,1.3325338163324205,1.1359269096285394
2024-06,Vietnam,"East, Southeast Asia, & Pacific",17831301.0,13219039.0,4612262.0,6.924070114327438,1.099296461691096,1.307690247121952,1.2775280890478176
2024-06,Australia,"East, Southeast Asia, & Pacific",23268024.0,18876861.0,4391163.0,6.592149469271351,5.589180963754068,1.2450032172115921,0.9775557837385915
2024-06,Hong Kong,"East, Southeast Asia, & Pacific",10578936.0,8046173.0,2532763.0,3.802262012646789,0.12030568393081054,0.7181008956931191,0.6796624013535918
2024-06,Thailand,"East, Southeast Asia, & Pacific",15275006.0,12913885.0,2361121.0,3.5445877429363106,5.556316836062288,0.6694361473773238,0.43165010783397256
2024-06,Philippines,"East, Southeast Asia, & Pacific",14731676.0,12985017.0,1746659.0,2.6221384175099005,7.564677237690695,0.4952209868710368,0.19449762602182805
2024-06,Singapore,"East, Southeast Asia, & Pacific",7435065.0,6197697.0,1237368.0,1.8575750443546166,2.24210022740007,0.35082440366587925,0.25045309480600586
2024-06,Malaysia,"East, Southeast Asia, & Pacific",13044229.0,12163217.0,881012.0,1.3226024149460385,9.505247835879203,0.2497886720219721,0.10611216302265386
2024-06,New Zealand,"East, Southeast Asia, & Pacific",3743781.0,3136894.0,606887.0,0.9110775015542993,1.1805269961261924,0.17206746082618465,0.12007208990226084
2024-06,Cambodia,"East, Southeast Asia, & Pacific",1264051.0,959501.0,304550.0,0.4571998627394587,0.07132254461521491,0.08634745050497793,0.0830925867654311
2024-06,Myanmar,"East, Southeast Asia, & Pacific",629374.0,900685.0,271311.0,0.4073004497117232,1.943580143637087,0.0769233726611593,0.13852319289337883
2024-06,Mongolia,"East, Southeast Asia, & Pacific",661885.0,421509.0,240376.0,0.36085987261815833,0.418665860959137,0.06815253574974413,0.0779750792322758
2024-06,Macao,"East, Southeast Asia, & Pacific",515627.0,383055.0,132572.0,0.19902117945524717,0.06985426489481127,0.03758743788654058,0.03747986845514577
2024-06,Laos,"East, Southeast Asia, & Pacific",330657.0,223638.0,107019.0,0.16066022692665943,0.14855049616246063,0.030342530965661575,0.033407318447448854
2024-06,China,"East, Southeast Asia, & Pacific",212585.0,111383.0,101202.0,0.15192756693140272,0.24816209233354372,0.028693267726169026,0.03527378355579841
2024-06,Brunei,"East, Southeast Asia, & Pacific",237811.0,178513.0,59298.0,0.08901998837867155,0.02384249110711064,0.01681244826808137,0.016506954760413604
2024-06,Papua New Guinea,"East, Southeast Asia, & Pacific",164353.0,110497.0,53856.0,0.08085028996124212,0.07713549564087821,0.015269506794930523,0.016890404142480914
2024-06,New Caledonia,"East, Southeast Asia, & Pacific",102356.0,58736.0,43620.0,0.06548369073286879,0.09555076006030118,0.012367347860867302,0.014811275693662355
2024-06,East Timor,"East, Southeast Asia, & Pacific",91214.0,50994.0,40220.0,0.06037950576056815,0.09150940673927829,0.01140336384603583,0.01377319983280425
2024-06,Guam,"East, Southeast Asia, & Pacific",88832.0,54495.0,34337.0,0.05154776452761384,0.06635980194272677,0.009735387975667137,0.011355957084194325
2024-06,French Polynesia,"East, Southeast Asia, & Pacific",87488.0,62267.0,25221.0,0.0378625438783513,0.024869392788603263,0.007150776717077813,0.007524081259154531
2024-06,Fiji,"East, Southeast Asia, & Pacific",100548.0,82182.0,18366.0,0.027571606235668688,0.02143434353649172,0.005207214828351419,0.004125633037506998
2024-06,Northern Mariana Islands,"East, Southeast Asia, & Pacific",12377.0,8131.0,4246.0,0.006374226291878974,0.006717949791459351,0.0012038459196983624,0.0013532114840256243
2024-06,Palau,"East, Southeast Asia, & Pacific",6080.0,3837.0,2243.0,0.0033672608508442154,0.004041190990144651,0.0006359459250785272,0.0007316920625193094
2024-06,Kiribati,"East, Southeast Asia, & Pacific",2161.0,4217.0,2056.0,0.0030865306773676803,0.012008201468927424,0.0005829268042627963,0.0009548217832994961
2024-06,Solomon Islands,"East, Southeast Asia, & Pacific",14583.0,12529.0,2054.0,0.0030835282156192684,0.005978778574583451,0.0005823597548423072,0.00033883451013131305
2024-06,Samoa,"East, Southeast Asia, & Pacific",12531.0,10744.0,1787.0,0.002682699572206248,0.005033713460545897,0.0005066586572070121,0.00030053447221400323
2024-06,Federated States of Micronesia,"East, Southeast Asia, & Pacific",4409.0,2746.0,1663.0,0.002496546943804695,0.0031023701269220277,0.00047150159313668786,0.0005461209086646827
2024-06,Vanuatu,"East, Southeast Asia, & Pacific",13085.0,11531.0,1554.0,0.002332912778516233,0.006726335853215599,0.00044059739972003185,0.00018097282548920211
2024-06,Tonga,"East, Southeast Asia, & Pacific",6251.0,4708.0,1543.0,0.0023163992388999665,0.0005591762040962636,0.0004374786279073417,0.0004273544228781553
2024-06,American Samoa,"East, Southeast Asia, & Pacific",5073.0,4205.0,868.0,0.001303068398810869,0.0013566389729003773,0.00024609944849227,0.00018322087866490304
2024-06,Cook Islands,"East, Southeast Asia, & Pacific",3779.0,2918.0,861.0,0.0012925597826914266,2.889224240704715e-07,0.00024411477552055817,0.0002277787170714978
2024-06,Marshall Islands,"East, Southeast Asia, & Pacific",2806.0,2061.0,745.0,0.0011184170012835224,0.0004978014199479274,0.00021122590913219032,0.00021413222109070712
2024-06,Nauru,"East, Southeast Asia, & Pacific",686.0,1191.0,505.0,0.0007581215914740655,0.0031161818812959347,0.00014317997867349812,0.00024022839011777456
2024-06,North Korea,"East, Southeast Asia, & Pacific",329.0,66.0,263.0,0.0003948237199161965,0.0008860653281461637,7.456699879431684e-05,9.989769748741436e-05
2024-06,Tuvalu,"East, Southeast Asia, & Pacific",69.0,240.0,171.0,0.00025671047948923803,0.000879868475987988,4.8482725451818166e-05,7.534593888805362e-05
2024-06,Norfolk Island,"East, Southeast Asia, & Pacific",426.0,364.0,62.0,9.307631420077636e-05,0.0001652317303737578,1.7578532035162146e-05,1.074924284468624e-05
2024-06,Tokelau,"East, Southeast Asia, & Pacific",17.0,33.0,16.0,2.4019693987297128e-05,9.364769660703602e-05,4.5363953639128115e-06,7.437266402163357e-06
2024-06,Cocos (Keeling) Islands,"East, Southeast Asia, & Pacific",6.0,0.0,6.0,9.007385245236421e-06,2.1831099589972175e-05,1.7011482614673044e-06,2.334350966316242e-06
2024-06,Christmas Island,"East, Southeast Asia, & Pacific",4.0,1.0,3.0,4.503692622618211e-06,9.841869615267945e-06,8.505741307336522e-07,1.1304381902505084e-06
2024-06,Niue,"East, Southeast Asia, & Pacific",11.0,8.0,3.0,4.503692622618211e-06,2.3261076019203995e-06,8.505741307336522e-07,8.732771256504989e-07
2024-06,Wallis and Futuna,"East, Southeast Asia, & Pacific",1040.0,1041.0,1.0,1.5012308742060705e-06,0.0011213344085873578,2.835247102445507e-07,3.86325554337116e-05
2024-06,Pitcairn Islands,"East, Southeast Asia, & Pacific",21.0,,,,,,
2024-06,U.S. Outlying Islands,"East, Southeast Asia, & Pacific",,28.0,,,,,
2024-06,Brazil,Latin America & Caribbean,45065958.0,36432083.0,8633875.0,22.25209858703829,14.023005822186413,2.4479169076626706,1.8779050683740108
2024-06,Mexico,Latin America & Caribbean,33303564.0,26797884.0,6505680.0,16.76709852015732,13.504522149732006,1.8445210369437688,1.466825990328684
2024-06,Belize,Latin America & Caribbean,70662.0,2435671.0,2365009.0,6.095341133295634,7.478160092880222,0.6705384914507547,1.008005266705022
2024-06,Bahamas,Latin America & Caribbean,127984.0,2489155.0,2361171.0,6.085449450317012,7.459089500948685,0.6694503236128361,1.0084085663979665
2024-06,Panama,Latin America & Caribbean,1390731.0,3464949.0,2074218.0,5.345885066324146,6.422966929701787,0.5880920574340315,0.9315188362964648
2024-06,Paraguay,Latin America & Caribbean,1448486.0,3503298.0,2054812.0,5.295869954317074,6.356946126667724,0.5825899769070257,0.9253458893975242
2024-06,Uruguay,Latin America & Caribbean,1773626.0,3733643.0,1960017.0,5.051554663030335,6.030969106032482,0.5557132519993936,0.8967355906871768
2024-06,Puerto Rico,Latin America & Caribbean,1274863.0,3202204.0,1927341.0,4.967338760735008,5.983698547958063,0.5464487985674427,0.8651195775739384
2024-06,Bolivia,Latin America & Caribbean,2290214.0,4209103.0,1918889.0,4.94555540884983,5.850726302150337,0.5440524477164557,0.8976994649929775
2024-06,Costa Rica,Latin America & Caribbean,1964298.0,3746524.0,1782226.0,4.593333660306978,5.467277350732972,0.5053051102403047,0.8281876136992683
2024-06,Argentina,Latin America & Caribbean,16589437.0,14970744.0,1618693.0,4.171859821707955,4.536562140156635,0.4589394637998826,0.07239486510781673
2024-06,Ecuador,Latin America & Caribbean,3701510.0,5152622.0,1451112.0,3.739953066825071,4.3033216982324065,0.41142610933239054,0.750070254890684
2024-06,Venezuela,Latin America & Caribbean,5420975.0,6440862.0,1019887.0,2.6285562475294952,2.889870655245886,0.2891631661571841,0.6294621115460992
2024-06,Chile,Latin America & Caribbean,8843096.0,9413118.0,570022.0,1.469118529140246,1.3966599579926975,0.1616153223830193,0.5629500516419007
2024-06,Peru,Latin America & Caribbean,7371255.0,7908775.0,537520.0,1.3853510772978326,1.3724146735917497,0.1524002022506509,0.4961881826127922
2024-06,Honduras,Latin America & Caribbean,1275737.0,922580.0,353157.0,0.9101920494219203,1.1526263258383402,0.10012873609583481,0.1033338304166283
2024-06,Guatemala,Latin America & Caribbean,2294410.0,1996832.0,297578.0,0.76694821193655,0.9898661538186151,0.08437071622515291,0.04219475692000429
2024-06,El Salvador,Latin America & Caribbean,1201045.0,913350.0,287695.0,0.7414767416713794,0.9437253498418459,0.08156864151380602,0.07824545796058426
2024-06,Dominican Republic,Latin America & Caribbean,2302736.0,2015304.0,287432.0,0.7407989113891029,0.9582054417073894,0.0814940745150117,0.037579332176087644
2024-06,Nicaragua,Latin America & Caribbean,866987.0,669105.0,197882.0,0.5100015662260933,0.6526032282271272,0.056104436712612185,0.05234196598872202
2024-06,Jamaica,Latin America & Caribbean,435000.0,322838.0,112162.0,0.28907528563007795,0.3702624609995364,0.0318006985504493,0.03175883094570874
2024-06,Trinidad and Tobago,Latin America & Caribbean,376572.0,293499.0,83073.0,0.2141041636485393,0.27582260704758615,0.02355324825414556,0.021526164103039397
2024-06,Martinique,Latin America & Caribbean,165179.0,102493.0,62686.0,0.1615607189155602,0.2055270480388752,0.017773029986389906,0.020619308191169475
2024-06,Guadeloupe,Latin America & Caribbean,179294.0,123560.0,55734.0,0.1436433192106664,0.1835482149569205,0.01580196620076979,0.0171407152894299
2024-06,Colombia,Latin America & Caribbean,11963333.0,11917796.0,45537.0,0.11736257628908951,0.4154224048461273,0.012910864730406106,0.41706867502027384
2024-06,Guyana,Latin America & Caribbean,112687.0,82214.0,30473.0,0.07853810719321486,0.10081243972411665,0.008639848495282194,0.00883415109205813
2024-06,Barbados,Latin America & Caribbean,104298.0,76436.0,27862.0,0.07180877309806558,0.09221632818612525,0.007899565476833672,0.008030789137503214
2024-06,Suriname,Latin America & Caribbean,140645.0,119981.0,20664.0,0.05325735723560502,0.07002789424012196,0.005858754612493396,0.0036307336084521334
2024-06,Haiti,Latin America & Caribbean,478212.0,457948.0,20264.0,0.05222643665419571,0.07733922769611293,0.005745344728395576,0.008939683326534179
2024-06,Aruba,Latin America & Caribbean,73059.0,54621.0,18438.0,0.0475202842000622,0.06115244871875456,0.005227628607489027,0.005166321228200345
2024-06,Curaçao,Latin America & Caribbean,78790.0,63397.0,15393.0,0.03967240127408382,0.0515182728658525,0.00436429586479437,0.0036592966116228234
2024-06,Saint Lucia,Latin America & Caribbean,45662.0,30478.0,15184.0,0.039133745270297456,0.049993673749865325,0.004305039200353258,0.00478752122216844
2024-06,Cayman Islands,Latin America & Caribbean,54851.0,41353.0,13498.0,0.0347884150196572,0.04481321812180274,0.003827016538880946,0.0037320335728343755
2024-06,Bermuda,Latin America & Caribbean,44702.0,32563.0,12139.0,0.03128586234431907,0.04018406225586918,0.0034417064576586012,0.0035262977708059337
2024-06,United States Virgin Islands,Latin America & Caribbean,36362.0,27259.0,9103.0,0.023461175131422398,0.030211510893532485,0.002580925437356145,0.0025400519541577647
2024-06,Cuba,Latin America & Caribbean,784974.0,793743.0,8769.0,0.022600356445945626,0.007278917036120278,0.002486228184134465,0.03255352031644546
2024-06,Antigua and Barbuda,Latin America & Caribbean,30293.0,21641.0,8652.0,0.022298812175883403,0.02860416896867289,0.0024530557930358527,0.002571002329102938
2024-06,Turks and Caicos Islands,Latin America & Caribbean,21861.0,15059.0,6802.0,0.017530804486865337,0.02243846884370129,0.0019285350790834341,0.0020930922760636285
2024-06,Grenada,Latin America & Caribbean,23608.0,18227.0,5381.0,0.01386845912140876,0.017917023085196146,0.0015256464658259276,0.0014238652873058584
2024-06,St Vincent and Grenadines,Latin America & Caribbean,20094.0,15401.0,4693.0,0.012095275721384744,0.015613745757797962,0.0013305814651776767,0.0012600248689863323
2024-06,"Bonaire, Sint Eustatius, and Saba",Latin America & Caribbean,14772.0,11319.0,3453.0,0.008899421919015878,0.01148858098550312,0.0009790108244744336,0.0009275703056037632
2024-06,Saint Kitts and Nevis,Latin America & Caribbean,16809.0,13368.0,3441.0,0.008868494301573599,0.011503500153414352,0.0009756085279514991,0.0008476246744992724
2024-06,Saint Martin,Latin America & Caribbean,9271.0,6079.0,3192.0,0.008226746239646305,0.010505149304702283,0.0009050108751006058,0.0010185374766118575
2024-06,Anguilla,Latin America & Caribbean,7785.0,4735.0,3050.0,0.007860769433245998,0.010009647528687469,0.0008647503662458797,0.0010126684229416361
2024-06,Sint Maarten,Latin America & Caribbean,19281.0,16696.0,2585.0,0.006662324257357673,0.008817195320865327,0.0007329113759821636,0.00039233389649807215
2024-06,British Virgin Islands,Latin America & Caribbean,13957.0,12353.0,1604.0,0.004133991531451338,0.005524054329671792,0.0004547736352322594,0.00017022717792854192
2024-06,Dominica,Latin America & Caribbean,16824.0,18050.0,1226.0,0.003159771582019539,0.0034961238499833795,0.0003476012947598192,0.0011400757177305579
2024-06,Saint Barthélemy,Latin America & Caribbean,962.0,434.0,528.0,0.0013608151674602909,0.001722755767587255,0.0001497010470091228,0.000189478722798703
2024-06,Falkland Islands,Latin America & Caribbean,2394.0,2002.0,392.0,0.001010302169781125,0.0013233488908902605,0.0001111416864158639,7.896253648154537e-05
2024-06,Montserrat,Latin America & Caribbean,1109.0,1154.0,45.0,0.00011597856540854752,0.0001153745352241084,1.2758611961004781e-05,5.990241302997744e-05
2024-06,French Guiana,Latin America & Caribbean,63713.0,63747.0,34.0,8.762824941979146e-05,0.00157257965740176,9.639840148314725e-06,0.0023550244548540314
2024-06,Algeria,Middle East & North Africa,5144063.0,8543209.0,3399146.0,34.06033340016848,41.37847035813548,0.9637418847289235,1.623134611552298
2024-06,Iraq,Middle East & North Africa,4902038.0,3556648.0,1345390.0,13.481160254149916,14.23297311584336,0.3814513099159161,0.39025934696768466
2024-06,United Arab Emirates,Middle East & North Africa,5217466.0,4074738.0,1142728.0,11.450433922434556,11.395228015669774,0.32399162508833496,0.2926589601327915
2024-06,Saudi Arabia,Middle East & North Africa,11490628.0,10502067.0,988561.0,9.905640195038387,4.547001779297622,0.2802814710840633,0.0040055140922841195
2024-06,Egypt,Middle East & North Africa,10368269.0,9825183.0,543086.0,5.44186399318061,0.7621844281518484,0.15397830078787209,0.1501154510521044
2024-06,Iran,Middle East & North Africa,21743929.0,21302858.0,441071.0,4.4196469681342645,5.634515845866838,0.12505452747227425,0.6051156556637037
2024-06,Jordan,Middle East & North Africa,2244140.0,1889982.0,354158.0,3.54875593938503,3.51448760121956,0.10041254433078958,0.06807718539593897
2024-06,Kuwait,Middle East & North Africa,1699111.0,1383101.0,316010.0,3.1665029856873583,3.3490746054976968,0.08959664368438047,0.07193913630724273
2024-06,Morocco,Middle East & North Africa,5465241.0,5170442.0,294799.0,2.953963209004929,0.8251746763234933,0.08358280105538331,0.07540483345585146
2024-06,Lebanon,Middle East & North Africa,1241524.0,974795.0,266729.0,2.672694455458382,2.9667801790133703,0.07562426243881877,0.06783807108801435
2024-06,Qatar,Middle East & North Africa,1104644.0,859041.0,245603.0,2.46100640104355,2.762641265136927,0.06963451941019239,0.06389323728966766
2024-06,Libya,Middle East & North Africa,964454.0,758605.0,205849.0,2.062660906619275,2.3034427652699603,0.058363278079130526,0.05214406388749452
2024-06,Oman,Middle East & North Africa,942153.0,774673.0,167480.0,1.6781934750258496,1.790968576496497,0.04748471847175736,0.03664313590889083
2024-06,Bahrain,Middle East & North Africa,601336.0,493027.0,108309.0,1.085284553896434,1.1735988332979836,0.030708277841877043,0.024002465046959357
2024-06,Palestine,Middle East & North Africa,622124.0,708949.0,86825.0,0.8700092456957212,1.5229431290387687,0.02461703296698312,0.059784626250360726
2024-06,Yemen,Middle East & North Africa,788841.0,747477.0,41364.0,0.4144781161987655,0.1490266473915866,0.011727716114555597,0.01136993011541958
2024-06,Tunisia,Middle East & North Africa,2012190.0,2033756.0,21566.0,0.21609696968239475,1.3329583866007773,0.00611449390113398,0.08298717389185863
2024-06,Syria,Middle East & North Africa,945943.0,935226.0,10717.0,0.10738714755106302,0.3536307062385317,0.00303853431969085,0.030172721164114607
2024-06,British Indian Ocean Territory,Middle East & North Africa,987.0,599.0,388.0,0.00388786164503242,0.004899085509933606,0.00011000758757488568,0.00012894891394214523
2024-06,United States,North America,310136759.0,382916205.0,72779446.0,98.8110246898019,90.58227112087138,20.634771338908926,26.513424243358617
2024-06,Canada,North America,38404766.0,39280508.0,875742.0,1.1889753101981084,9.417728879128616,0.24829449679898333,1.7310139243800087
2024-06,Italy,Northern & Western Europe,49437871.0,39408428.0,10029443.0,16.9967826845396,7.260496724559797,2.8435949204892377,2.2705115903997
2024-06,Germany,Northern & Western Europe,82478675.0,72466985.0,10011690.0,16.96669687788028,17.878893354383898,2.838561506308266,0.9723597512117814
2024-06,France,Northern & Western Europe,59591832.0,50688353.0,8903479.0,15.088624333311623,5.091240642623219,2.524356303643442,1.4193269466107328
2024-06,Spain,Northern & Western Europe,34338512.0,26934471.0,7404041.0,12.547543853075515,8.689733144169038,2.099228579163774,1.7960243648306295
2024-06,United Kingdom,Northern & Western Europe,67315400.0,61132829.0,6182571.0,10.477532572719808,19.99647616623984,1.752911651341362,0.050601158669323514
2024-06,Netherlands,Northern & Western Europe,21280201.0,18365456.0,2914745.0,4.939585114133294,1.4033136439720697,0.826402231561753,0.4386451423115204
2024-06,Sweden,Northern & Western Europe,13327331.0,10456598.0,2870733.0,4.864998479610126,4.379495656066645,0.8139237420144699,0.7184298424924349
2024-06,Finland,Northern & Western Europe,8499780.0,6603747.0,1896033.0,3.213185504291282,3.2676539865682903,0.5375722069391062,0.48901125723948324
2024-06,Denmark,Northern & Western Europe,5982877.0,4378232.0,1604645.0,2.7193735834415773,3.722334101508087,0.45495650867036713,0.4597989584156856
2024-06,Portugal,Northern & Western Europe,6754824.0,5282324.0,1472500.0,2.4954289588150167,2.469362730729728,0.4174901358351009,0.3751052717938403
2024-06,Israel,Northern & Western Europe,9342872.0,7948182.0,1394690.0,2.363565239096581,0.14187963872518294,0.39542907813097244,0.2461407150586081
2024-06,Norway,Northern & Western Europe,6647793.0,5298953.0,1348840.0,2.28586376693246,1.9280779346977903,0.3824294701662598,0.32678504860404356
2024-06,Ireland,Northern & Western Europe,5241377.0,4215831.0,1025546.0,1.7379811117126693,1.3527628613542373,0.290767632492458,0.24213922469979676
2024-06,Austria,Northern & Western Europe,8993890.0,9821751.0,827861.0,1.402966596450634,10.54946677944001,0.234719050147764,0.6768170304937174
2024-06,Belgium,Northern & Western Europe,9812722.0,9310757.0,501965.0,0.8506743615019219,4.600943835319871,0.1423194811779059,0.14710719961683993
2024-06,Switzerland,Northern & Western Europe,10477427.0,10279137.0,198290.0,0.33603980186311017,6.557623336838516,0.056220114794391964,0.29903435256957045
2024-06,Luxembourg,Northern & Western Europe,850703.0,745752.0,104951.0,0.1778592629246824,0.08644042557995066,0.029756201864875844,0.013406770667764828
2024-06,Malta,Northern & Western Europe,391933.0,302953.0,88980.0,0.15079339134489658,0.170858190823523,0.025228028717560125,0.023475627539926835
2024-06,Iceland,Northern & Western Europe,480583.0,417534.0,63049.0,0.1068484213408,0.0291312076266171,0.017875949456208677,0.009180765204033957
2024-06,Isle of Man,Northern & Western Europe,102579.0,70170.0,32409.0,0.05492316273428583,0.09214570101518813,0.009188752334315644,0.010029873603027784
2024-06,Jersey,Northern & Western Europe,96409.0,72008.0,24401.0,0.0413520964509645,0.05517766894688152,0.006918286454677283,0.006847143705324214
2024-06,Andorra,Northern & Western Europe,73356.0,52850.0,20506.0,0.034751284366357035,0.052054365945854525,0.005813957708274757,0.0060358937886294765
2024-06,Faroe Islands,Northern & Western Europe,54600.0,38117.0,16483.0,0.027933552141356822,0.045080277821589555,0.004673337798960929,0.005012192369279138
2024-06,Monaco,Northern & Western Europe,53498.0,37312.0,16186.0,0.027430229628101776,0.04435586178845838,0.004589130960018298,0.004926228519454929
2024-06,Guernsey,Northern & Western Europe,50487.0,37132.0,13355.0,0.022632566210509034,0.03189833123632652,0.003786472505315975,0.0038314903013333215
2024-06,Gibraltar,Northern & Western Europe,34634.0,23579.0,11055.0,0.018734782437826832,0.031709807750054865,0.0031343656717535084,0.0034346671195454466
2024-06,Liechtenstein,Northern & Western Europe,31836.0,20850.0,10986.0,0.018617848924646366,0.03342480213069109,0.003114802466746634,0.00350809131221171
2024-06,Greenland,Northern & Western Europe,26420.0,20106.0,6314.0,0.010700263800311046,0.013194468120562606,0.0017901750204840933,0.001717812221021217
2024-06,Åland Islands,Northern & Western Europe,27640.0,22215.0,5425.0,0.009193685637739535,0.007677780301409459,0.0015381215530766877,0.0012944680986053312
2024-06,San Marino,Northern & Western Europe,18482.0,13551.0,4931.0,0.008356509470911272,0.011898320920773274,0.0013980603462158795,0.0014205856645261663
2024-06,Saint Pierre and Miquelon,Northern & Western Europe,4215.0,2737.0,1478.0,0.0025047497460975177,0.004547971017705453,0.000419049521741446,0.00047447612224808523
2024-06,Vatican City,Northern & Western Europe,1256.0,961.0,295.0,0.0004999331360614125,0.0006005852751195751,8.363978952214246e-05,7.946757714063578e-05
2024-06,Svalbard and Jan Mayen,Northern & Western Europe,38.0,23.0,15.0,2.5420328952275217e-05,4.969650308560655e-05,4.2528706536682604e-06,4.990919470018979e-06
2024-06,India,South Asia,150295318.0,131328460.0,18966858.0,76.13437739941293,86.32121626275767,5.3775729186995385,1.637996185382878
2024-06,Bangladesh,South Asia,9996791.0,6763062.0,3233729.0,12.98042849761548,7.904296800510255,0.9168420777344007,0.9973403805575647
2024-06,Pakistan,South Asia,8265663.0,6354966.0,1910697.0,7.6696797378841595,3.1112395750533874,0.5417298132901324,0.5039538988696347
2024-06,Nepal,South Asia,2147584.0,1651838.0,495746.0,1.9899612818448555,0.9259181018430103,0.14055624100489506,0.13178876845283624
2024-06,Afghanistan,South Asia,577340.0,420914.0,156426.0,0.6279055876877744,0.3760741167523364,0.04435063632471409,0.04536120518820639
2024-06,Sri Lanka,South Asia,2047652.0,1979958.0,67694.0,0.27172874619907306,1.155806777037946,0.019192921735294615,0.04637729720511338
2024-06,Maldives,South Asia,192028.0,126129.0,65899.0,0.26452348281639015,0.1973900379626387,0.01868399488040565,0.02100012284376349
2024-06,Bhutan,South Asia,95649.0,80354.0,15295.0,0.061395266539350936,0.008058328082761423,0.004336510443190403,0.0029981471708719534
2024-06,Nigeria,Sub-Saharan Africa,7083640.0,5998371.0,1085269.0,19.574189252267338,12.362953625176841,0.3077005787623933,0.1992031366807467
2024-06,South Africa,Sub-Saharan Africa,6832305.0,6036327.0,795978.0,14.35646278723639,17.467776689889103,0.225679431811037,0.0862444272423597
2024-06,Ethiopia,Sub-Saharan Africa,813136.0,448894.0,364242.0,6.569561870489584,9.10406659653053,0.10327160750889565,0.12511151412481467
2024-06,Ivory Coast,Sub-Saharan Africa,1129586.0,791863.0,337723.0,6.091258403993372,5.699723600390586,0.09575281571792041,0.10215752452751728
2024-06,Ghana,Sub-Saharan Africa,1649509.0,1313124.0,336385.0,6.067125893786654,1.922189995520508,0.0953734596556132,0.0824269978511604
2024-06,DR Congo,Sub-Saharan Africa,1161369.0,846990.0,314379.0,5.670220049534773,4.554334755481344,0.08913421488197161,0.09105655997161768
2024-06,Senegal,Sub-Saharan Africa,745090.0,493683.0,251407.0,4.534440951823718,5.063094688817045,0.07128009682845177,0.07960425245486283
2024-06,Tanzania,Sub-Saharan Africa,1312339.0,1089796.0,222543.0,4.013842465570591,0.06335706971893071,0.06309643959195305,0.046441808149408965
2024-06,Uganda,Sub-Saharan Africa,766593.0,613707.0,152886.0,2.75749099810475,0.9691256724327947,0.04334695885044838,0.03689234810742897
2024-06,Angola,Sub-Saharan Africa,723006.0,576625.0,146381.0,2.640165154386742,1.0109649717753344,0.04150263061030758,0.035727917528232456
2024-06,Réunion,Sub-Saharan Africa,397252.0,264743.0,132509.0,2.389966214485711,2.7220724871830893,0.03756957582979517,0.04180779016911266
2024-06,Cameroon,Sub-Saharan Africa,870112.0,754079.0,116033.0,2.092800864585956,1.197290769407882,0.032898222703805956,0.017407534735754848
2024-06,Madagascar,Sub-Saharan Africa,283659.0,185892.0,97767.0,1.7633506168760193,2.0928908227331737,0.027719360346478993,0.031197386038667695
2024-06,Kenya,Sub-Saharan Africa,2054377.0,2146126.0,91749.0,1.654808429713072,16.180897044544118,0.026013108640227284,0.11433608988678871
2024-06,Burkina Faso,Sub-Saharan Africa,325941.0,243952.0,81989.0,1.4787745734966602,1.1511341274207578,0.02324590746824047,0.022926233538853934
2024-06,Malawi,Sub-Saharan Africa,232816.0,154602.0,78214.0,1.4106877080031195,1.6415270392081929,0.022175601687067288,0.02474323908716075
2024-06,Benin,Sub-Saharan Africa,312840.0,241211.0,71629.0,1.2919189638243211,0.8170299449247341,0.020308591470106923,0.01899799104109227
2024-06,Rwanda,Sub-Saharan Africa,249156.0,178482.0,70674.0,1.2746943395736372,1.2174672642435915,0.02003782537182338,0.020932656272140537
2024-06,Somalia,Sub-Saharan Africa,352101.0,285693.0,66408.0,1.1977516725019965,0.3336574604631405,0.018828308957920124,0.015332455925426655
2024-06,Mauritius,Sub-Saharan Africa,377718.0,315580.0,62138.0,1.1207368604073165,0.01576463617081138,0.017617658445175894,0.01257344843395602
2024-06,Mozambique,Sub-Saharan Africa,532667.0,471346.0,61321.0,1.1060012394514958,1.100368101549287,0.017386018756906093,0.006531459943485224
2024-06,Seychelles,Sub-Saharan Africa,88671.0,141398.0,52727.0,0.9509976574511019,2.784747981552992,0.014949407397064426,0.02570500651786524
2024-06,Republic of the Congo,Sub-Saharan Africa,163302.0,118059.0,45243.0,0.8160143193441729,0.7603904893629648,0.012827508465594207,0.013262187854911926
2024-06,Mali,Sub-Saharan Africa,279183.0,234792.0,44391.0,0.8006474294367566,0.0687682664825416,0.01258594541246585,0.008640725758885616
2024-06,Mauritania,Sub-Saharan Africa,204098.0,161133.0,42965.0,0.7749277287231702,0.38607422154913085,0.012181639175657122,0.01079303941017859
2024-06,Zimbabwe,Sub-Saharan Africa,376374.0,337278.0,39096.0,0.705145455188201,0.9448404551414632,0.011084682071720956,0.0028157140899185426
2024-06,Botswana,Sub-Saharan Africa,144976.0,106518.0,38458.0,0.6936383240133988,0.6056468753501797,0.010903793306584933,0.011047105459820097
2024-06,Gabon,Sub-Saharan Africa,177872.0,139991.0,37881.0,0.683231404439949,0.35604978912173885,0.010740199548773826,0.009592518805357142
2024-06,Guinea,Sub-Saharan Africa,227741.0,193286.0,34455.0,0.621439192206606,0.12600038749973613,0.009768843891475995,0.006301495728944135
2024-06,Togo,Sub-Saharan Africa,190098.0,159144.0,30954.0,0.5582942607912722,0.013417089559532244,0.008776223880909824,0.006194318535755109
2024-06,Namibia,Sub-Saharan Africa,175841.0,147906.0,27935.0,0.5038428046521997,0.04067095217972245,0.007920262780681525,0.005432960300405397
2024-06,Zambia,Sub-Saharan Africa,483892.0,460409.0,23483.0,0.4235453940092216,2.2978833889667545,0.006658010770672784,0.007778452926399937
2024-06,Liberia,Sub-Saharan Africa,121574.0,102872.0,18702.0,0.3373140552212435,0.05213735370427682,0.005302479130993588,0.003496143585627511
2024-06,Chad,Sub-Saharan Africa,95963.0,78385.0,17578.0,0.31704130374714035,0.07611348989455281,0.0049837973566787125,0.003958604152673818
2024-06,South Sudan,Sub-Saharan Africa,74542.0,57044.0,17498.0,0.3155984032863501,0.21924355310999735,0.004961115379859149,0.004711610842005615
2024-06,Cabo Verde,Sub-Saharan Africa,74026.0,57881.0,16145.0,0.29119534924323476,0.1665526835549692,0.004577506446898271,0.0041545104948002886
2024-06,Sudan,Sub-Saharan Africa,325474.0,309720.0,15754.0,0.28414317324112237,1.5527829404929414,0.004466648285192652,0.005249281290658856
2024-06,Sierra Leone,Sub-Saharan Africa,134144.0,121095.0,13049.0,0.23535510141065163,0.3716779019939756,0.0036997139439811423,0.0006276413617806964
2024-06,Comoros,Sub-Saharan Africa,23095.0,12223.0,10872.0,0.19609017262139664,0.29559831377768975,0.0030824806497787554,0.003780712721070675
2024-06,Central African Republic,Sub-Saharan Africa,28442.0,17878.0,10564.0,0.1905350058473541,0.2461547692500446,0.002995155039023434,0.003453111270637769
2024-06,Gambia,Sub-Saharan Africa,69145.0,59285.0,9860.0,0.1778374817923998,0.061246596961320336,0.00279555364301127,0.0016579156398601005
2024-06,Equatorial Guinea,Sub-Saharan Africa,39127.0,29821.0,9306.0,0.16784539610142724,0.12067195658648655,0.002638480953535789,0.002524897865531807
2024-06,Mayotte,Sub-Saharan Africa,28619.0,20502.0,8117.0,0.14640028800293198,0.14297448036176277,0.0023013700730550183,0.0024047111878385593
2024-06,Eswatini,Sub-Saharan Africa,55099.0,48257.0,6842.0,0.12340406190908718,0.09089196510584463,0.0019398760674932162,0.0008889863618629934
2024-06,Eritrea,Sub-Saharan Africa,9101.0,2725.0,6376.0,0.11499916672498389,0.20385949749825702,0.0018077535525192554,0.0023805094037322146
2024-06,Lesotho,Sub-Saharan Africa,53580.0,47462.0,6118.0,0.1103458127389353,0.1106406659950671,0.0017346041772761615,0.0006365343526515558
2024-06,Burundi,Sub-Saharan Africa,71919.0,65948.0,5971.0,0.10769448314223318,0.24168484815692473,0.0016929260448702121,9.978460104403562e-05
2024-06,Djibouti,Sub-Saharan Africa,47597.0,42077.0,5520.0,0.09956013179452808,0.0947202284275801,0.0015650564005499198,0.000601726865920928
2024-06,São Tomé and Príncipe,Sub-Saharan Africa,8410.0,4411.0,3999.0,0.07212698678375323,0.10941618294545365,0.0011338153162679583,0.0013937845194097178
2024-06,Niger,Sub-Saharan Africa,119950.0,116084.0,3866.0,0.06972816476768942,0.6551700137808275,0.0010961065298054332,0.0027604230014334507
2024-06,Guinea-Bissau,Sub-Saharan Africa,31749.0,29107.0,2642.0,0.047651787717598405,0.106448852767173,0.000749072284466103,4.14398025417572e-05
2024-06,Saint Helena,Sub-Saharan Africa,997.0,674.0,323.0,0.005825710610440684,0.006673290517530263,9.157848140898988e-05,0.00010090483558205454
2024-06,Western Sahara,Sub-Saharan Africa,11.0,85.0,74.0,0.0013346829262309925,0.0031631547687694453,2.0980828558096752e-05,3.191299673415406e-05
2024-06,French Southern Territories,Sub-Saharan Africa,,4.0,,,,,
2024-06,Antarctica,UNCLASSED,305.0,10.0,295.0,100.0,100.0,8.363978952214246e-05,0.00011440486040712857
